%YAML 1.1
%TAG !u! tag:unity3d.com,2011:
--- !u!1045 &1
EditorBuildSettings:
  m_ObjectHideFlags: 0
  serializedVersion: 2
  m_Scenes:
  - enabled: 1
    path: Assets/Scenes/Start/Start.unity
    guid: 86a10f45ccacd2844a2d9f9cf5f3f9ce
  - enabled: 1
    path: Assets/Scenes/Home/Home_NoSignIn.unity
    guid: 0fa93e138cbd0064fb326f3f5fa53762
  - enabled: 1
    path: Assets/Scenes/Home/Home_User.unity
    guid: 93e94da2ca8572240ac27fd72044f512
  - enabled: 1
    path: Assets/Scenes/Authentication/SignIn.unity
    guid: 8785580dc50d55c4593469034f834430
  - enabled: 1
    path: Assets/Scenes/Lesson/LessonDetail.unity
    guid: ecc118677e05ab04eb615147afc259e0
  - enabled: 1
    path: Assets/Scenes/Lesson/LessonDetail_NoSignIn.unity
    guid: fe1485358521c8f4dbc34d700b2c39e8
  - enabled: 1
    path: Assets/Scenes/Experience/Experience.unity
    guid: 3864feefabe4e0a4885dddea2bc78ad0
  - enabled: 1
    path: Assets/Scenes/Meetings/MeetingStarting.unity
    guid: ff5c940a6fd7d674399040cece0f2d0d
  - enabled: 1
    path: Assets/Scenes/Meetings/MeetingJoining.unity
    guid: a13ea7c8e28b0ef4385d9a7e2518e6aa
  - enabled: 1
    path: Assets/Scenes/Meetings/MeetingExperience.unity
    guid: c225cc0376ac9984a96b3ef4cc1fde5d
  - enabled: 1
    path: Assets/Scenes/UploadModel/UploadModel.unity
    guid: deafd4e62afebd940a0231414d5f5026
  - enabled: 1
    path: Assets/Scenes/CreateLesson/3DStore.unity
    guid: 6cbafd1d6f007c946912ec689a7f1720
  - enabled: 1
    path: Assets/Scenes/CreateLesson/CreateLesson.unity
    guid: 42c21613464437b40b0f80c2348d545e
  - enabled: 1
    path: Assets/Scenes/MyLessons/LessonDetail_Edit.unity
    guid: a03c47bfbbb4895489d0c5cb9fabdd86
  - enabled: 1
    path: Assets/Scenes/MyLessons/MyLesson.unity
    guid: 8eec0cdce577b81468cb29c62f5d2bdc
  - enabled: 1
    path: Assets/Scenes/CreateLesson/CreateLesson_Main.unity
    guid: acb8bb843beb1d546bc2033d94ebb4fa
  - enabled: 1
    path: Assets/Scenes/MyLessons/UpdateLessonObjectives.unity
    guid: db526e202b0dd234a893eaa40d412a10
  - enabled: 1
    path: Assets/Scenes/ListOrgan/ListOrgan_Edit.unity
    guid: bfbcdacbe04bca249a93833e824a3119
  - enabled: 1
    path: Assets/Scenes/XRLibrary/XRLibrary_Edit.unity
    guid: d5600b3e3b8cd0345b1091d110ffe8b6
  - enabled: 1
    path: Assets/Scenes/Network/Network.unity
    guid: e323da1f4bd834ef799d12b49dc4ebe1
  - enabled: 1
    path: Assets/Scenes/Authentication/ResetPass.unity
    guid: 1ef72ee4aa3d9364d88040a9828ef417
  - enabled: 1
    path: Assets/Scenes/Authentication/ForgotPass.unity
    guid: 8c4aa9a880f00d342b38bf7a276834aa
  - enabled: 1
    path: Assets/Scenes/Authentication/PassResetDone.unity
    guid: 8161ad4c1e192d848bd999d03c1bef01
  - enabled: 1
    path: Assets/Scenes/Authentication/SignUp.unity
    guid: 58871e69e9fc44044b9dea2b1c3faa77
  - enabled: 1
    path: Assets/Scenes/BuildLesson/BuildLesson.unity
    guid: 034b2f396ce11488b83cce56ea8c882a
  - enabled: 1
    path: Assets/Scenes/UploadModel/InteractionScene.unity
    guid: f3229f61271fd4a49b112db3fc2beaac
  - enabled: 1
    path: Assets/Scenes/PDFViewer/PdfViewer.unity
    guid: 2e1fc568bea43be4b8f44e1bee4d9b46
  - enabled: 1
    path: Assets/Scenes/CreateLesson/ScanObject.unity
    guid: 2b1d5a65e3964d74aa5a1059e3e60f05
  - enabled: 1
    path: Assets/Scenes/CreateLesson/LoadModel.unity
    guid: a1905f38381fe4c4ebb3a8714472aaef
  m_configObjects:
    UnityEditor.XR.ARCore.ARCoreSettings: {fileID: 11400000, guid: 70432b14145644b79bc921f214f0278a, type: 2}
    UnityEditor.XR.ARKit.ARKitSettings: {fileID: 11400000, guid: a49a25207da019a48b9bb85f410dc45c, type: 2}
    com.unity.addressableassets: {fileID: 11400000, guid: da1bb2df4a056ef4ea1dc22ff5911481, type: 2}
    com.unity.xr.management.loader_settings: {fileID: 11400000, guid: 0bfe80518aaa94dcba679995587a533f, type: 2}
