%YAML 1.1
%TAG !u! tag:unity3d.com,2011:
--- !u!78 &1
TagManager:
  serializedVersion: 2
  tags:
  - Cube1
  - Cube2
  - Cube3
  - UI
  - NormalCamera
  - Panel
  - Organ
  - ModelLabel
  - LabelModel
  - Lesson
  - Tag2D
  - LabelModelEdit
  - HandleLabel
  - Cube
  - RenderCamera
  - IconTick
  - ExtraInteraction
  - ModelClone
  - NotificationTag
  - ImageBackground
  - LabelEdit
  - LoadingItemTag
  - UIButton
  - Background
  - Video
  - Audio
  layers:
  - Default
  - TransparentFX
  - Ignore Raycast
  - Label
  - Water
  - UI
  - 
  - 
  - 
  - 
  - 
  - 
  - 
  - 
  - 
  - 
  - 
  - 
  - 
  - 
  - 
  - 
  - 
  - 
  - 
  - 
  - 
  - 
  - 
  - 
  - 
  - 
  m_SortingLayers:
  - name: Default
    uniqueID: 0
    locked: 0
  - name: Label
    uniqueID: 670285361
    locked: 0
